정명곤_사례연구.utf8
…
#문6-1

data %>% 
  filter(is.na(income)==FALSE) %>% 
  group_by(age, gender) %>% 
  summarise(mean_income   = mean(income), 
            sd_income     = sd(income), 
            median_income = median(income), 
            max_income    = max(income), 
            min_income    = min(income), 
            n=n()) 

## `summarise()` has grouped output by 'age'. You can override using the `.groups` argument.

## # A tibble: 134 x 8
## # Groups:   age [69]
##      age gender mean_income sd_income median_income max_income min_income     n
##    <dbl> <fct>        <dbl>     <dbl>         <dbl>      <dbl>      <dbl> <int>
##  1    25 female        147.      8.27         147.        153.      142.      2
##  2    25 male           69      NA             69          69        69       1
##  3    26 female        107.     64.0          110         258.       22      19
##  4    26 male          102.     23.4           97.5       140        63.6     8
##  5    27 female        140.     82.6          150         358.       15      17
##  6    27 male          118.     65.1          103         280        36.7    14
##  7    28 female        139.     76.1          120         350        40      19
##  8    28 male          153.     61.3          139.        240        96       4
##  9    29 female        126.     63.5          136         302.       20      40
## 10    29 male          158.     63.2          155         280        60      13
## # ... with 124 more rows
…
## [1] "E:/gon/TJS_BigData/src/07_R"

codejob <- read_excel("inData/Koweps/Koweps_Codebook.xlsx")

data2 <-right_join(data,codejob,by='code_job')

data2 %>% 
  filter(is.na(income)==FALSE) %>% 
  group_by(job) %>% 
  summarise(mean_income   = mean(income), 
            sd_income     = sd(income), 
            n=n()) %>% 
  arrange(desc(mean_income))

## # A tibble: 142 x 4
##    job                                  mean_income sd_income     n
##    <chr>                                      <dbl>     <dbl> <int>
##  1 금속 재료 공학 기술자 및 시험원             845.     874.      3
##  2 의료진료 전문가                             844.     591.      7
##  3 의회의원 고위공무원 및 공공단체임원         750      707.      2
##  4 보험 및 금융 관리자                         726.     301.     10
##  5 제관원 및 판금원                            572.      98.9     3
##  6 행정 및 경영지원 관리자                     564.     393.     12
##  7 문화 예술 디자인 및 영상 관련 관리자        557.     421.      3
##  8 연구 교육 및 법률 관련 관리자               550.     141.      8
##  9 건설 전기 및 생산 관련 관리자               536.     320.     27
## 10 석유 및 화학물 가공장치 조작원              532.     336.      5
## # ... with 132 more rows
…
